<?xml version="1.0" encoding="utf-8"?>
<!-- Generator: Adobe Illustrator 19.0.0, SVG Export Plug-In . SVG Version: 6.00 Build 0)  -->
<svg version="1.1" id="Calque_1" xmlns="http://www.w3.org/2000/svg" xmlns:xlink="http://www.w3.org/1999/xlink" x="0px" y="0px"
	 width="100px" height="100px" viewBox="-255 347 100 100" style="enable-background:new -255 347 100 100;" xml:space="preserve">
<style type="text/css">
	.st0{fill:#61E9D5;}
	.st1{fill:#FFFFFF;}
</style>
<g>
	<path id="a_1_" class="st0" d="M-228.4,348.7c8.1-1.2,16.3-1.7,24.4-1.7s16.3,0.6,24.4,1.7c12.4,1.8,22.1,11.5,23.9,23.9
		c1.2,8.1,1.7,16.3,1.7,24.4s-0.6,16.3-1.7,24.4c-1.8,12.4-11.5,22.1-23.9,23.9c-8.1,1.2-16.3,1.7-24.4,1.7s-16.3-0.6-24.4-1.7
		c-12.4-1.8-22.1-11.5-23.9-23.9c-1.2-8.1-1.7-16.3-1.7-24.4s0.6-16.3,1.7-24.4C-250.5,360.2-240.8,350.5-228.4,348.7z"/>
</g>
<path class="st1" d="M-177,430.3c-0.7,0-1.3-0.6-1.3-1.3v-33.9h-52.6V429c0,0.7-0.6,1.3-1.3,1.3s-1.3-0.6-1.3-1.3v-33.9h-2.8
	c-0.7,0-1.3-0.6-1.3-1.3v-6.1c0-0.7,0.6-1.3,1.3-1.3h7.4v-4.2c0-0.4,0.1-0.7,0.4-0.9l3.4-3.4c-0.6-0.7-0.9-1.6-0.9-2.5
	c0-1.1,0.4-2.1,1.2-2.8l7.1-7.1c0.8-0.8,1.8-1.2,2.8-1.2c1.1,0,2.1,0.4,2.8,1.2l1.3,1.3c0.8,0.8,1.2,1.8,1.2,2.8s-0.4,2.1-1.2,2.8
	l-7.1,7.1c-0.8,0.8-1.8,1.2-2.8,1.2c-1,0-1.9-0.3-2.6-1l-3,3v3.6h20.4v-1.5c-2-0.6-3.5-2.6-3.5-4.7V376c0-2.7,2.2-4.9,4.9-4.9
	c2.7,0,4.9,2.2,4.9,4.9v4.1c0,2.3-1.6,4.3-3.8,4.8v1.4h20.6v-2.8l-2.7-2.6l-1.2,1.2c-0.2,0.2-0.6,0.4-0.9,0.4
	c-0.3,0-0.6-0.1-0.9-0.3l-9.2-8.5c-0.6-0.3-1.2-0.6-1.6-1.1c-1.9-1.9-1.9-5.1,0-7c0.9-0.9,2.2-1.5,3.5-1.5s2.6,0.5,3.5,1.5
	c0.4,0.4,0.7,0.9,1,1.4h0.2l0,0.3l8.4,9.2c0.5,0.5,0.5,1.3,0,1.8l-0.9,0.9l3.1,2.9c0.3,0.2,0.4,0.6,0.4,1v3.3h7.2
	c0.7,0,1.3,0.6,1.3,1.3v6.1c0,0.7-0.6,1.3-1.3,1.3h-2.7V429C-175.7,429.7-176.3,430.3-177,430.3z M-174.3,392.4v-3.5h-60.7v3.5
	H-174.3z M-204.6,373.7c-1.3,0-2.3,1-2.3,2.3v4.1c0,1.3,1,2.3,2.3,2.3s2.3-1,2.3-2.3V376C-202.2,374.8-203.3,373.7-204.6,373.7z
	 M-187.7,379.3l2.1-2.1l-6.8-7.4l-2.7,2.7L-187.7,379.3z M-215,366.8c-0.4,0-0.7,0.1-1,0.4l-7.1,7.1c-0.3,0.3-0.4,0.6-0.4,1
	c0,0.4,0.1,0.7,0.4,1l1.3,1.3c0.3,0.3,0.6,0.4,1,0.4c0.4,0,0.7-0.1,1-0.4l7.1-7.1c0.3-0.3,0.4-0.6,0.4-1c0-0.4-0.1-0.7-0.4-1
	l-1.3-1.3C-214.2,367-214.6,366.8-215,366.8z M-195.8,366.7c-0.6,0-1.2,0.2-1.7,0.7c-0.9,0.9-0.9,2.4,0,3.3c0.1,0.1,0.2,0.2,0.3,0.3
	l3.3-3.3c-0.1-0.1-0.2-0.2-0.3-0.3C-194.6,367-195.2,366.7-195.8,366.7z"/>
<path class="st1" d="M-236.4,394.6h3.3V429c0,0.5,0.4,0.8,0.8,0.8c0.5,0,0.8-0.4,0.8-0.8v-34.4h53.6V429c0,0.5,0.4,0.8,0.8,0.8
	c0.5,0,0.8-0.4,0.8-0.8v-34.4h3.2c0.5,0,0.8-0.4,0.8-0.8v-6.1c0-0.5-0.4-0.8-0.8-0.8h-7.7v-3.8c0-0.2-0.1-0.4-0.3-0.6l-3.5-3.3
	l1.2-1.2c0.3-0.3,0.3-0.8,0-1.1l-8.5-9.3c0,0,0,0,0,0c-0.2-0.6-0.6-1.1-1-1.5c-1.7-1.7-4.6-1.7-6.3,0c-1.7,1.7-1.7,4.6,0,6.3
	c0.4,0.4,1,0.8,1.5,1c0,0,0,0,0,0l9.3,8.5c0.2,0.1,0.4,0.2,0.6,0.2c0.2,0,0.4-0.1,0.6-0.2l1.5-1.5l3.2,3.1v3.5h-21.6v-2.3
	c2.1-0.3,3.8-2.2,3.8-4.4V376c0-2.4-2-4.4-4.4-4.4c-2.4,0-4.4,2-4.4,4.4v4.1c0,2.1,1.5,3.9,3.5,4.3v2.3h-21.4v-4.3l3.5-3.5l0.1,0.1
	c0.7,0.7,1.6,1,2.5,1c0.9,0,1.8-0.3,2.5-1l7.1-7.1c1.4-1.4,1.4-3.6,0-4.9l-1.3-1.3c-1.4-1.4-3.6-1.4-4.9,0l-7.1,7.1
	c-0.7,0.7-1,1.5-1,2.5c0,0.9,0.4,1.8,1,2.5l0,0l-3.7,3.7c-0.2,0.2-0.2,0.4-0.2,0.6v4.7h-7.9c-0.5,0-0.8,0.4-0.8,0.8v6.1
	C-237.2,394.2-236.8,394.6-236.4,394.6z M-197.9,367c1.1-1.1,2.9-1.1,4,0c0.2,0.2,0.4,0.5,0.5,0.8l-3.8,3.8
	c-0.3-0.1-0.6-0.3-0.8-0.5C-199,370-199,368.2-197.9,367z M-187.7,380l-8.1-7.4l3.5-3.5l7.4,8.1L-187.7,380z M-207.4,380.1V376
	c0-1.5,1.3-2.8,2.8-2.8c1.5,0,2.8,1.3,2.8,2.8v4.1c0,1.5-1.3,2.8-2.8,2.8C-206.1,382.9-207.4,381.7-207.4,380.1z M-223.4,374
	l7.1-7.1c0.4-0.4,0.8-0.5,1.3-0.5c0.5,0,1,0.2,1.3,0.5l1.3,1.3c0.7,0.7,0.7,1.9,0,2.6l-7.1,7.1c-0.7,0.7-1.9,0.7-2.6,0l-1.3-1.3
	c-0.4-0.4-0.5-0.8-0.5-1.3S-223.8,374.4-223.4,374z M-235.6,388.4h61.7v4.5h-61.7C-235.6,392.9-235.6,388.4-235.6,388.4z"/>
</svg>
